{
    "synthesized_therapy": {
        "ate_freq_in": 5.99778,
        "ate_m10_in": 0.0,
        "ate_m11_in": 0.0,
        "ate_m12_in": 1.08608e-05,
        "ate_m13_in": 6.09788,
        "ate_m14_in": 0.0320654,
        "ate_m15_in": 0.0,
        "ate_m1_in": 0.0,
        "ate_m2_in": 0.0,
        "ate_m3_in": 0.0,
        "ate_m4_in": 0.0,
        "ate_m5_in": 0.0,
        "ate_m6_in": 0.0,
        "ate_m7_in": 1.87104,
        "ate_m8_in": 0.0,
        "ate_m9_in": 0.0,
        "cibi_freq_in": 5.99959,
        "cibi_m10_in": 12.9761,
        "cibi_m11_in": 0.0,
        "cibi_m12_in": 0.0,
        "cibi_m13_in": 0.0,
        "cibi_m14_in": 0.0,
        "cibi_m15_in": 89.7634,
        "cibi_m1_in": 0.514564,
        "cibi_m2_in": 0.0,
        "cibi_m3_in": 0.54513,
        "cibi_m4_in": 0.0,
        "cibi_m5_in": 0.124873,
        "cibi_m6_in": 0.0,
        "cibi_m7_in": 0.0,
        "cibi_m8_in": 0.0,
        "cibi_m9_in": 0.0
    },
    "tumour_diameter": 23.60892492543897,
    "total_drugs": 0.021011246527777777,
    "objective": 23.33793302296277,
    "inefficacy": 25.92870210923332
}
