======= APRICOPT =========

=== Optimization through COPASI solver ===


Solver settings: 

Method: Nelder - Mead
    Log Verbosity: 0
    Iteration Limit: 1200
    Tolerance: 0.1
    Scale: 10



Optimization Log:

Function Evaluation	Objective Value		Optimization Parameters
1			33.6526			(	4	24	24	24	24	24	24	24	24	24	24	24	24	24	24	24	3	160	160	160	160	160	160	160	160	160	160	160	160	160	160	160	)
2			32.6528			(	4.5	24	24	24	24	24	24	24	24	24	24	24	24	24	24	24	3	160	160	160	160	160	160	160	160	160	160	160	160	160	160	160	)
18			31.7534			(	4	24	24	24	24	24	24	24	24	24	24	24	24	24	24	24	3.5	160	160	160	160	160	160	160	160	160	160	160	160	160	160	160	)
327			31.7533			(	4.4	24	24	24	24	24	24	24	24	24	24	24	24	24	24	24	3.5	160	160	160	160	160	160	160	160	160	160	160	160	160	160	160	)
328			31.7267			(	4	22.08	24	24	24	24	24	24	24	24	24	24	24	24	24	24	3.5	160	160	160	160	160	160	160	160	160	160	160	160	160	160	160	)
329			31.7267			(	4	24	22.08	24	24	24	24	24	24	24	24	24	24	24	24	24	3.5	160	160	160	160	160	160	160	160	160	160	160	160	160	160	160	)
330			31.7267			(	4	24	24	22.08	24	24	24	24	24	24	24	24	24	24	24	24	3.5	160	160	160	160	160	160	160	160	160	160	160	160	160	160	160	)
331			31.7267			(	4	24	24	24	22.08	24	24	24	24	24	24	24	24	24	24	24	3.5	160	160	160	160	160	160	160	160	160	160	160	160	160	160	160	)
334			31.7001			(	4	24	24	24	24	24	24	22.08	24	24	24	24	24	24	24	24	3.5	160	160	160	160	160	160	160	160	160	160	160	160	160	160	160	)
364			31.7			(	4.32	24	24	24	24	24	24	22.08	24	24	24	24	24	24	24	24	3.5	160	160	160	160	160	160	160	160	160	160	160	160	160	160	160	)
365			31.6787			(	4	22.464	24	24	24	24	24	22.08	24	24	24	24	24	24	24	24	3.5	160	160	160	160	160	160	160	160	160	160	160	160	160	160	160	)
366			31.6787			(	4	24	22.464	24	24	24	24	22.08	24	24	24	24	24	24	24	24	3.5	160	160	160	160	160	160	160	160	160	160	160	160	160	160	160	)
367			31.6787			(	4	24	24	22.464	24	24	24	22.08	24	24	24	24	24	24	24	24	3.5	160	160	160	160	160	160	160	160	160	160	160	160	160	160	160	)
368			31.6787			(	4	24	24	24	22.464	24	24	22.08	24	24	24	24	24	24	24	24	3.5	160	160	160	160	160	160	160	160	160	160	160	160	160	160	160	)
369			31.6787			(	4	24	24	24	24	22.464	24	22.08	24	24	24	24	24	24	24	24	3.5	160	160	160	160	160	160	160	160	160	160	160	160	160	160	160	)
387			31.6662			(	4	24	24	24	24	24	24	22.08	24	24	24	24	24	24	24	24	3.5	160	160	160	160	160	160	149.76	160	160	160	160	160	160	160	160	)
396			31.5649			(	4.03	23.856	23.856	23.856	23.856	23.856	23.856	19.008	23.856	23.856	23.856	23.856	23.856	23.856	23.856	23.856	3.53	159.04	159.04	159.04	159.04	159.04	159.04	159.04	159.04	159.04	159.04	159.04	159.04	159.04	159.04	159.04	)
397			31.387			(	4.06	23.712	23.712	23.712	23.712	23.712	23.712	14.4	23.712	23.712	23.712	23.712	23.712	23.712	23.712	23.712	3.56	158.08	158.08	158.08	158.08	158.08	158.08	158.08	158.08	158.08	158.08	158.08	158.08	158.08	158.08	158.08	)
402			31.387			(	4.316	23.712	23.712	23.712	23.712	23.712	23.712	14.4	23.712	23.712	23.712	23.712	23.712	23.712	23.712	23.712	3.56	158.08	158.08	158.08	158.08	158.08	158.08	158.08	158.08	158.08	158.08	158.08	158.08	158.08	158.08	158.08	)
403			31.37			(	4.06	22.4832	23.712	23.712	23.712	23.712	23.712	14.4	23.712	23.712	23.712	23.712	23.712	23.712	23.712	23.712	3.56	158.08	158.08	158.08	158.08	158.08	158.08	158.08	158.08	158.08	158.08	158.08	158.08	158.08	158.08	158.08	)
404			31.37			(	4.06	23.712	22.4832	23.712	23.712	23.712	23.712	14.4	23.712	23.712	23.712	23.712	23.712	23.712	23.712	23.712	3.56	158.08	158.08	158.08	158.08	158.08	158.08	158.08	158.08	158.08	158.08	158.08	158.08	158.08	158.08	158.08	)
405			31.37			(	4.06	23.712	23.712	22.4832	23.712	23.712	23.712	14.4	23.712	23.712	23.712	23.712	23.712	23.712	23.712	23.712	3.56	158.08	158.08	158.08	158.08	158.08	158.08	158.08	158.08	158.08	158.08	158.08	158.08	158.08	158.08	158.08	)
406			31.37			(	4.06	23.712	23.712	23.712	22.4832	23.712	23.712	14.4	23.712	23.712	23.712	23.712	23.712	23.712	23.712	23.712	3.56	158.08	158.08	158.08	158.08	158.08	158.08	158.08	158.08	158.08	158.08	158.08	158.08	158.08	158.08	158.08	)
425			31.3599			(	4.06	23.712	23.712	23.712	23.712	23.712	23.712	14.4	23.712	23.712	23.712	23.712	23.712	23.712	23.712	23.712	3.56	158.08	158.08	158.08	158.08	158.08	158.08	149.888	158.08	158.08	158.08	158.08	158.08	158.08	158.08	158.08	)
434			31.2789			(	4.084	23.5968	23.5968	23.5968	23.5968	23.5968	23.5968	11.9424	23.5968	23.5968	23.5968	23.5968	23.5968	23.5968	23.5968	23.5968	3.584	157.312	157.312	157.312	157.312	157.312	157.312	157.312	157.312	157.312	157.312	157.312	157.312	157.312	157.312	157.312	)
435			31.1366			(	4.108	23.4816	23.4816	23.4816	23.4816	23.4816	23.4816	8.256	23.4816	23.4816	23.4816	23.4816	23.4816	23.4816	23.4816	23.4816	3.608	156.544	156.544	156.544	156.544	156.544	156.544	156.544	156.544	156.544	156.544	156.544	156.544	156.544	156.544	156.544	)
440			31.1366			(	4.3128	23.4816	23.4816	23.4816	23.4816	23.4816	23.4816	8.256	23.4816	23.4816	23.4816	23.4816	23.4816	23.4816	23.4816	23.4816	3.608	156.544	156.544	156.544	156.544	156.544	156.544	156.544	156.544	156.544	156.544	156.544	156.544	156.544	156.544	156.544	)
441			31.123			(	4.108	22.4986	23.4816	23.4816	23.4816	23.4816	23.4816	8.256	23.4816	23.4816	23.4816	23.4816	23.4816	23.4816	23.4816	23.4816	3.608	156.544	156.544	156.544	156.544	156.544	156.544	156.544	156.544	156.544	156.544	156.544	156.544	156.544	156.544	156.544	)
442			31.123			(	4.108	23.4816	22.4986	23.4816	23.4816	23.4816	23.4816	8.256	23.4816	23.4816	23.4816	23.4816	23.4816	23.4816	23.4816	23.4816	3.608	156.544	156.544	156.544	156.544	156.544	156.544	156.544	156.544	156.544	156.544	156.544	156.544	156.544	156.544	156.544	)
443			31.123			(	4.108	23.4816	23.4816	22.4986	23.4816	23.4816	23.4816	8.256	23.4816	23.4816	23.4816	23.4816	23.4816	23.4816	23.4816	23.4816	3.608	156.544	156.544	156.544	156.544	156.544	156.544	156.544	156.544	156.544	156.544	156.544	156.544	156.544	156.544	156.544	)
444			31.123			(	4.108	23.4816	23.4816	23.4816	22.4986	23.4816	23.4816	8.256	23.4816	23.4816	23.4816	23.4816	23.4816	23.4816	23.4816	23.4816	3.608	156.544	156.544	156.544	156.544	156.544	156.544	156.544	156.544	156.544	156.544	156.544	156.544	156.544	156.544	156.544	)
445			31.123			(	4.108	23.4816	23.4816	23.4816	23.4816	22.4986	23.4816	8.256	23.4816	23.4816	23.4816	23.4816	23.4816	23.4816	23.4816	23.4816	3.608	156.544	156.544	156.544	156.544	156.544	156.544	156.544	156.544	156.544	156.544	156.544	156.544	156.544	156.544	156.544	)
463			31.115			(	4.108	23.4816	23.4816	23.4816	23.4816	23.4816	23.4816	8.256	23.4816	23.4816	23.4816	23.4816	23.4816	23.4816	23.4816	23.4816	3.608	156.544	156.544	156.544	156.544	156.544	156.544	149.99	156.544	156.544	156.544	156.544	156.544	156.544	156.544	156.544	)
472			31.0502			(	4.1272	23.3894	23.3894	23.3894	23.3894	23.3894	23.3894	6.28992	23.3894	23.3894	23.3894	23.3894	23.3894	23.3894	23.3894	23.3894	3.6272	155.93	155.93	155.93	155.93	155.93	155.93	155.93	155.93	155.93	155.93	155.93	155.93	155.93	155.93	155.93	)
473			30.9365			(	4.1464	23.2973	23.2973	23.2973	23.2973	23.2973	23.2973	3.3408	23.2973	23.2973	23.2973	23.2973	23.2973	23.2973	23.2973	23.2973	3.6464	155.315	155.315	155.315	155.315	155.315	155.315	155.315	155.315	155.315	155.315	155.315	155.315	155.315	155.315	155.315	)
478			30.9365			(	4.31024	23.2973	23.2973	23.2973	23.2973	23.2973	23.2973	3.3408	23.2973	23.2973	23.2973	23.2973	23.2973	23.2973	23.2973	23.2973	3.6464	155.315	155.315	155.315	155.315	155.315	155.315	155.315	155.315	155.315	155.315	155.315	155.315	155.315	155.315	155.315	)
479			30.9256			(	4.1464	22.5108	23.2973	23.2973	23.2973	23.2973	23.2973	3.3408	23.2973	23.2973	23.2973	23.2973	23.2973	23.2973	23.2973	23.2973	3.6464	155.315	155.315	155.315	155.315	155.315	155.315	155.315	155.315	155.315	155.315	155.315	155.315	155.315	155.315	155.315	)
480			30.9256			(	4.1464	23.2973	22.5108	23.2973	23.2973	23.2973	23.2973	3.3408	23.2973	23.2973	23.2973	23.2973	23.2973	23.2973	23.2973	23.2973	3.6464	155.315	155.315	155.315	155.315	155.315	155.315	155.315	155.315	155.315	155.315	155.315	155.315	155.315	155.315	155.315	)
481			30.9256			(	4.1464	23.2973	23.2973	22.5108	23.2973	23.2973	23.2973	3.3408	23.2973	23.2973	23.2973	23.2973	23.2973	23.2973	23.2973	23.2973	3.6464	155.315	155.315	155.315	155.315	155.315	155.315	155.315	155.315	155.315	155.315	155.315	155.315	155.315	155.315	155.315	)
482			30.9256			(	4.1464	23.2973	23.2973	23.2973	22.5108	23.2973	23.2973	3.3408	23.2973	23.2973	23.2973	23.2973	23.2973	23.2973	23.2973	23.2973	3.6464	155.315	155.315	155.315	155.315	155.315	155.315	155.315	155.315	155.315	155.315	155.315	155.315	155.315	155.315	155.315	)
501			30.9192			(	4.1464	23.2973	23.2973	23.2973	23.2973	23.2973	23.2973	3.3408	23.2973	23.2973	23.2973	23.2973	23.2973	23.2973	23.2973	23.2973	3.6464	155.315	155.315	155.315	155.315	155.315	155.315	150.072	155.315	155.315	155.315	155.315	155.315	155.315	155.315	155.315	)
510			30.8676			(	4.16176	23.2236	23.2236	23.2236	23.2236	23.2236	23.2236	1.76794	23.2236	23.2236	23.2236	23.2236	23.2236	23.2236	23.2236	23.2236	3.66176	154.824	154.824	154.824	154.824	154.824	154.824	154.824	154.824	154.824	154.824	154.824	154.824	154.824	154.824	154.824	)
516			30.8676			(	4.29283	23.2236	23.2236	23.2236	23.2236	23.2236	23.2236	1.76794	23.2236	23.2236	23.2236	23.2236	23.2236	23.2236	23.2236	23.2236	3.66176	154.824	154.824	154.824	154.824	154.824	154.824	154.824	154.824	154.824	154.824	154.824	154.824	154.824	154.824	154.824	)
548			30.8542			(	4.17405	23.2825	23.2825	23.2825	23.2825	23.2825	23.2825	0.509645	23.2825	23.2825	23.2825	23.2825	23.2825	23.2825	23.2825	23.2825	3.67405	155.217	155.217	155.217	155.217	155.217	155.217	155.217	155.217	155.217	155.217	155.217	155.217	155.217	155.217	155.217	)
554			30.8541			(	4.27891	23.2825	23.2825	23.2825	23.2825	23.2825	23.2825	0.509645	23.2825	23.2825	23.2825	23.2825	23.2825	23.2825	23.2825	23.2825	3.67405	155.217	155.217	155.217	155.217	155.217	155.217	155.217	155.217	155.217	155.217	155.217	155.217	155.217	155.217	155.217	)
594			30.8541			(	4.36279	23.2825	23.2825	23.2825	23.2825	23.2825	23.2825	0.509645	23.2825	23.2825	23.2825	23.2825	23.2825	23.2825	23.2825	23.2825	3.67405	155.217	155.217	155.217	155.217	155.217	155.217	155.217	155.217	155.217	155.217	155.217	155.217	155.217	155.217	155.217	)
