======= APRICOPT =========

=== Optimization through COPASI solver ===


Solver settings: 

Method: Nelder - Mead
    Log Verbosity: 0
    Iteration Limit: 1200
    Tolerance: 0.1
    Scale: 10



Optimization Log:

Function Evaluation	Objective Value		Optimization Parameters
1			39.0758			(	4	24	24	24	24	24	24	24	24	24	24	24	24	24	24	24	3	160	160	160	160	160	160	160	160	160	160	160	160	160	160	160	)
2			38.0762			(	4.5	24	24	24	24	24	24	24	24	24	24	24	24	24	24	24	3	160	160	160	160	160	160	160	160	160	160	160	160	160	160	160	)
18			37.25			(	4	24	24	24	24	24	24	24	24	24	24	24	24	24	24	24	3.5	160	160	160	160	160	160	160	160	160	160	160	160	160	160	160	)
455			37.2499			(	4.4	24	24	24	24	24	24	24	24	24	24	24	24	24	24	24	3.5	160	160	160	160	160	160	160	160	160	160	160	160	160	160	160	)
456			37.2233			(	4	22.08	24	24	24	24	24	24	24	24	24	24	24	24	24	24	3.5	160	160	160	160	160	160	160	160	160	160	160	160	160	160	160	)
457			37.2233			(	4	24	22.08	24	24	24	24	24	24	24	24	24	24	24	24	24	3.5	160	160	160	160	160	160	160	160	160	160	160	160	160	160	160	)
458			37.2233			(	4	24	24	22.08	24	24	24	24	24	24	24	24	24	24	24	24	3.5	160	160	160	160	160	160	160	160	160	160	160	160	160	160	160	)
459			37.2233			(	4	24	24	24	22.08	24	24	24	24	24	24	24	24	24	24	24	3.5	160	160	160	160	160	160	160	160	160	160	160	160	160	160	160	)
460			37.2233			(	4	24	24	24	24	22.08	24	24	24	24	24	24	24	24	24	24	3.5	160	160	160	160	160	160	160	160	160	160	160	160	160	160	160	)
462			37.1967			(	4	24	24	24	24	24	24	22.08	24	24	24	24	24	24	24	24	3.5	160	160	160	160	160	160	160	160	160	160	160	160	160	160	160	)
492			37.1966			(	4.32	24	24	24	24	24	24	22.08	24	24	24	24	24	24	24	24	3.5	160	160	160	160	160	160	160	160	160	160	160	160	160	160	160	)
493			37.1753			(	4	22.464	24	24	24	24	24	22.08	24	24	24	24	24	24	24	24	3.5	160	160	160	160	160	160	160	160	160	160	160	160	160	160	160	)
494			37.1753			(	4	24	22.464	24	24	24	24	22.08	24	24	24	24	24	24	24	24	3.5	160	160	160	160	160	160	160	160	160	160	160	160	160	160	160	)
495			37.1753			(	4	24	24	22.464	24	24	24	22.08	24	24	24	24	24	24	24	24	3.5	160	160	160	160	160	160	160	160	160	160	160	160	160	160	160	)
496			37.1753			(	4	24	24	24	22.464	24	24	22.08	24	24	24	24	24	24	24	24	3.5	160	160	160	160	160	160	160	160	160	160	160	160	160	160	160	)
497			37.1753			(	4	24	24	24	24	22.464	24	22.08	24	24	24	24	24	24	24	24	3.5	160	160	160	160	160	160	160	160	160	160	160	160	160	160	160	)
515			37.1606			(	4	24	24	24	24	24	24	22.08	24	24	24	24	24	24	24	24	3.5	160	160	160	160	160	160	149.76	160	160	160	160	160	160	160	160	)
524			37.0609			(	4.03	23.856	23.856	23.856	23.856	23.856	23.856	19.008	23.856	23.856	23.856	23.856	23.856	23.856	23.856	23.856	3.53	159.04	159.04	159.04	159.04	159.04	159.04	159.04	159.04	159.04	159.04	159.04	159.04	159.04	159.04	159.04	)
525			36.8825			(	4.06	23.712	23.712	23.712	23.712	23.712	23.712	14.4	23.712	23.712	23.712	23.712	23.712	23.712	23.712	23.712	3.56	158.08	158.08	158.08	158.08	158.08	158.08	158.08	158.08	158.08	158.08	158.08	158.08	158.08	158.08	158.08	)
530			36.8825			(	4.316	23.712	23.712	23.712	23.712	23.712	23.712	14.4	23.712	23.712	23.712	23.712	23.712	23.712	23.712	23.712	3.56	158.08	158.08	158.08	158.08	158.08	158.08	158.08	158.08	158.08	158.08	158.08	158.08	158.08	158.08	158.08	)
531			36.8655			(	4.06	22.4832	23.712	23.712	23.712	23.712	23.712	14.4	23.712	23.712	23.712	23.712	23.712	23.712	23.712	23.712	3.56	158.08	158.08	158.08	158.08	158.08	158.08	158.08	158.08	158.08	158.08	158.08	158.08	158.08	158.08	158.08	)
532			36.8655			(	4.06	23.712	22.4832	23.712	23.712	23.712	23.712	14.4	23.712	23.712	23.712	23.712	23.712	23.712	23.712	23.712	3.56	158.08	158.08	158.08	158.08	158.08	158.08	158.08	158.08	158.08	158.08	158.08	158.08	158.08	158.08	158.08	)
533			36.8655			(	4.06	23.712	23.712	22.4832	23.712	23.712	23.712	14.4	23.712	23.712	23.712	23.712	23.712	23.712	23.712	23.712	3.56	158.08	158.08	158.08	158.08	158.08	158.08	158.08	158.08	158.08	158.08	158.08	158.08	158.08	158.08	158.08	)
534			36.8655			(	4.06	23.712	23.712	23.712	22.4832	23.712	23.712	14.4	23.712	23.712	23.712	23.712	23.712	23.712	23.712	23.712	3.56	158.08	158.08	158.08	158.08	158.08	158.08	158.08	158.08	158.08	158.08	158.08	158.08	158.08	158.08	158.08	)
535			36.8655			(	4.06	23.712	23.712	23.712	23.712	22.4832	23.712	14.4	23.712	23.712	23.712	23.712	23.712	23.712	23.712	23.712	3.56	158.08	158.08	158.08	158.08	158.08	158.08	158.08	158.08	158.08	158.08	158.08	158.08	158.08	158.08	158.08	)
553			36.8536			(	4.06	23.712	23.712	23.712	23.712	23.712	23.712	14.4	23.712	23.712	23.712	23.712	23.712	23.712	23.712	23.712	3.56	158.08	158.08	158.08	158.08	158.08	158.08	149.888	158.08	158.08	158.08	158.08	158.08	158.08	158.08	158.08	)
562			36.774			(	4.084	23.5968	23.5968	23.5968	23.5968	23.5968	23.5968	11.9424	23.5968	23.5968	23.5968	23.5968	23.5968	23.5968	23.5968	23.5968	3.584	157.312	157.312	157.312	157.312	157.312	157.312	157.312	157.312	157.312	157.312	157.312	157.312	157.312	157.312	157.312	)
563			36.6313			(	4.108	23.4816	23.4816	23.4816	23.4816	23.4816	23.4816	8.256	23.4816	23.4816	23.4816	23.4816	23.4816	23.4816	23.4816	23.4816	3.608	156.544	156.544	156.544	156.544	156.544	156.544	156.544	156.544	156.544	156.544	156.544	156.544	156.544	156.544	156.544	)
568			36.6313			(	4.3128	23.4816	23.4816	23.4816	23.4816	23.4816	23.4816	8.256	23.4816	23.4816	23.4816	23.4816	23.4816	23.4816	23.4816	23.4816	3.608	156.544	156.544	156.544	156.544	156.544	156.544	156.544	156.544	156.544	156.544	156.544	156.544	156.544	156.544	156.544	)
569			36.6177			(	4.108	22.4986	23.4816	23.4816	23.4816	23.4816	23.4816	8.256	23.4816	23.4816	23.4816	23.4816	23.4816	23.4816	23.4816	23.4816	3.608	156.544	156.544	156.544	156.544	156.544	156.544	156.544	156.544	156.544	156.544	156.544	156.544	156.544	156.544	156.544	)
570			36.6177			(	4.108	23.4816	22.4986	23.4816	23.4816	23.4816	23.4816	8.256	23.4816	23.4816	23.4816	23.4816	23.4816	23.4816	23.4816	23.4816	3.608	156.544	156.544	156.544	156.544	156.544	156.544	156.544	156.544	156.544	156.544	156.544	156.544	156.544	156.544	156.544	)
571			36.6177			(	4.108	23.4816	23.4816	22.4986	23.4816	23.4816	23.4816	8.256	23.4816	23.4816	23.4816	23.4816	23.4816	23.4816	23.4816	23.4816	3.608	156.544	156.544	156.544	156.544	156.544	156.544	156.544	156.544	156.544	156.544	156.544	156.544	156.544	156.544	156.544	)
572			36.6177			(	4.108	23.4816	23.4816	23.4816	22.4986	23.4816	23.4816	8.256	23.4816	23.4816	23.4816	23.4816	23.4816	23.4816	23.4816	23.4816	3.608	156.544	156.544	156.544	156.544	156.544	156.544	156.544	156.544	156.544	156.544	156.544	156.544	156.544	156.544	156.544	)
573			36.6177			(	4.108	23.4816	23.4816	23.4816	23.4816	22.4986	23.4816	8.256	23.4816	23.4816	23.4816	23.4816	23.4816	23.4816	23.4816	23.4816	3.608	156.544	156.544	156.544	156.544	156.544	156.544	156.544	156.544	156.544	156.544	156.544	156.544	156.544	156.544	156.544	)
591			36.6082			(	4.108	23.4816	23.4816	23.4816	23.4816	23.4816	23.4816	8.256	23.4816	23.4816	23.4816	23.4816	23.4816	23.4816	23.4816	23.4816	3.608	156.544	156.544	156.544	156.544	156.544	156.544	149.99	156.544	156.544	156.544	156.544	156.544	156.544	156.544	156.544	)
600			36.5445			(	4.1272	23.3894	23.3894	23.3894	23.3894	23.3894	23.3894	6.28992	23.3894	23.3894	23.3894	23.3894	23.3894	23.3894	23.3894	23.3894	3.6272	155.93	155.93	155.93	155.93	155.93	155.93	155.93	155.93	155.93	155.93	155.93	155.93	155.93	155.93	155.93	)
601			36.4307			(	4.1464	23.2973	23.2973	23.2973	23.2973	23.2973	23.2973	3.3408	23.2973	23.2973	23.2973	23.2973	23.2973	23.2973	23.2973	23.2973	3.6464	155.315	155.315	155.315	155.315	155.315	155.315	155.315	155.315	155.315	155.315	155.315	155.315	155.315	155.315	155.315	)
606			36.4306			(	4.31024	23.2973	23.2973	23.2973	23.2973	23.2973	23.2973	3.3408	23.2973	23.2973	23.2973	23.2973	23.2973	23.2973	23.2973	23.2973	3.6464	155.315	155.315	155.315	155.315	155.315	155.315	155.315	155.315	155.315	155.315	155.315	155.315	155.315	155.315	155.315	)
607			36.4197			(	4.1464	22.5108	23.2973	23.2973	23.2973	23.2973	23.2973	3.3408	23.2973	23.2973	23.2973	23.2973	23.2973	23.2973	23.2973	23.2973	3.6464	155.315	155.315	155.315	155.315	155.315	155.315	155.315	155.315	155.315	155.315	155.315	155.315	155.315	155.315	155.315	)
608			36.4197			(	4.1464	23.2973	22.5108	23.2973	23.2973	23.2973	23.2973	3.3408	23.2973	23.2973	23.2973	23.2973	23.2973	23.2973	23.2973	23.2973	3.6464	155.315	155.315	155.315	155.315	155.315	155.315	155.315	155.315	155.315	155.315	155.315	155.315	155.315	155.315	155.315	)
609			36.4197			(	4.1464	23.2973	23.2973	22.5108	23.2973	23.2973	23.2973	3.3408	23.2973	23.2973	23.2973	23.2973	23.2973	23.2973	23.2973	23.2973	3.6464	155.315	155.315	155.315	155.315	155.315	155.315	155.315	155.315	155.315	155.315	155.315	155.315	155.315	155.315	155.315	)
