======= APRICOPT =========

=== Optimization through COPASI solver ===


Solver settings: 

Method: Genetic Algorithm
    Log Verbosity: 0
    Number of Generations: 25
    Population Size: 64
    Random Number Generator: 1
    Seed: 104
    Mutation Variance: 0.1
    Stop after # Stalled Generations: 0

Population Information: 
Population Size: 0
# Generations / Iterations: 0
Current Generation / Iteration: 0
Population Values: 
   (		)

Population:



Optimization Log:

Function Evaluation	Objective Value		Optimization Parameters
1			18.1053			(	4	24	24	24	24	24	24	24	24	24	24	24	24	24	24	24	3	160	160	160	160	160	160	160	160	160	160	160	160	160	160	160	)
320			9.63142			(	4.23907	9.12302e-152	4.55664e-41	5.99235e-286	24	24	24	2.27076e-216	2.33919e-52	1.36485e-201	24	23.8138	1.87887e-269	5.71214e-276	2.07363e-200	2.03101e-164	3.23967	160	7.74897e-49	3.17876e-253	160	155.781	160	151.01	151.489	6.2477e-120	7.07175e-306	3.21026e-266	160	160	160	5.35656e-89	)
448			4.99021			(	1	6.42646e-310	0	0	0	5.06911e-321	0	0	0	0	0	0	7.77332e-310	5.23077e-276	9.38459e-30	2.05488e-164	3.54683	149.832	8.15052e-49	3.66697e-253	160	3.44564e-40	4.77438e-265	156.355	6.53069e-310	6.46291e-310	6.04452e-310	0	0	160	6.39938e-310	8.22396e-310	)
704			4.31028			(	4.21966	6.94472e-122	4.16189e-41	5.31003e-286	1.59056e-287	1.39935e-27	1.10424e-44	1.59866e-216	1.54953e-277	1.6999e-139	2.71518e-24	2.1258e-271	1.0665e-117	1.06106e-225	1.73714e-200	2.55234e-216	2.88588	1.34313e-27	4.91444e-310	3.83872e-310	0	0	5.27174e-301	140.605	4.59476e-211	0.00468584	1.95336e-50	1.96155e-116	0	100.262	1.10767e-128	9.48518e-16	)
896			4.18658			(	5.24675	6.82245e-122	5.00008e-126	2.8208e-197	6.15076e-51	1.16359e-27	1.29207e-44	1.59775e-216	2.5367e-52	1.37448e-201	2.87141e-24	6.44163e-212	3.36462e-38	1.59018e-225	1.83932e-53	3.03445e-216	6	1.14414e-27	1.76179e-153	7.61724e-197	8.23338e-139	1.35427e-285	153.484	151.652	4.13702e-35	6.11527e-79	1.69407e-164	4.14403e-266	155.822	135.868	8.83294e-216	9.87559e-16	)
1024			3.88442			(	5.07388	1.00057e-121	5.33475e-162	2.8082e-197	6.63415e-51	1.32621e-27	1.35794e-44	1.50491e-216	2.47928e-52	1.27329e-201	0	0	8.13301e-310	6.79774e-276	1.10214e-29	2.27187e-164	6	1.17514e-27	1.55224e-153	5.22667e-146	9.40588e-139	1.16393e-285	160	120.742	4.40764e-35	7.10353e-79	1.56158e-164	5.1396e-266	0	160	5.88705e-310	9.91093e-310	)
1152			3.8603			(	4.87291	9.98464e-122	4.29256e-92	2.99095e-240	5.49693e-51	1.06759e-27	1.47439e-161	8.23374e-140	2.27356e-52	1.06583e-201	9.5212e-200	1.17349e-149	1.00374e-309	5.42077e-276	1.10818e-29	2.36745e-164	5.74281	153.43	1.15989e-48	5.47974e-146	9.3149e-139	1.37622e-285	146.173	105.919	4.82599e-35	5.5569e-310	4.73211e-310	1.4326e-216	0	133.865	5.76417e-310	8.24003e-310	)
1216			3.8415			(	5.96324	9.09706e-152	0	6.17033e-286	0	2.07366e-27	1.35825e-44	1.75765e-216	2.96433e-52	1.61025e-201	0	1.07538e-149	1.21067e-117	2.85696e-266	1.74798e-200	1.61981e-164	4.62748	1.37687e-27	5.07271e-76	3.02114e-253	1.6551e-54	2.21823e-40	160	94.4067	6.26657e-310	3.27728e-259	3.02083e-50	1.69044e-85	0	4.02585e-16	6.47406e-310	8.28488e-310	)
1344			3.82561			(	3.85226	8.12817e-122	4.88479e-92	2.94267e-240	4.39297e-170	1.20304e-27	1.34429e-44	1.36911e-216	3.00202e-52	7.56407e-202	0	0	1.92676e-269	5.39933e-276	1.3628e-200	1.49423e-164	6	1.68174e-40	8.66594e-49	3.11103e-253	1.45757e-54	2.35436e-40	160	84.6969	6.25097e-310	3.47941e-259	2.79787e-50	1.44604e-85	0	4.68007e-16	7.93016e-310	8.63026e-310	)
1408			3.80943			(	4.01962	8.56487e-122	4.26054e-126	0	4.10478e-170	1.07502e-27	1.22411e-44	1.51898e-216	3.34787e-52	1.58447e-201	2.07035e-24	0	1.21893e-117	1.52981e-225	1.40773e-200	2.44761e-12	4.60275	1.61618e-40	9.29503e-49	2.60518e-253	1.17105e-54	1.03586e-285	150.7	74.8303	6.51298e-310	3.51554e-259	4.40211e-310	0	0	4.40513e-16	7.57717e-310	8.483e-310	)
1536			3.7989			(	5.59737	6.27914e-152	5.51646e-162	2.67399e-197	7.40388e-51	1.6077e-27	1.42099e-44	1.54049e-216	1.72064e-271	0	2.82707e-24	1.22306e-271	9.5343e-310	5.03418e-276	1.08141e-29	1.66741e-164	6	1.12598e-27	1.1861e-153	5.27791e-146	8.08658e-139	7.98625e-286	160	68.4199	5.39656e-35	4.80589e-310	4.81032e-310	1.44893e-216	0	153.546	4.38358e-310	8.37046e-310	)
1600			3.7959			(	5.61238	7.80026e-122	3.88196e-162	2.89566e-197	8.57463e-51	1.91124e-27	1.10167e-44	1.46927e-216	2.42288e-52	1.11232e-201	2.90313e-24	0	9.64112e-310	8.08485e-276	1.30055e-200	1.85194e-164	5.62256	1.20357e-27	1.11891e-153	4.94784e-146	7.36341e-139	9.24824e-286	134.499	66.6008	4.82482e-35	8.00866e-79	1.65362e-164	4.42116e-266	0	137.495	6.36139e-310	8.51119e-310	)



Optimization Result:

    Objective Function Value:	3.7959
    Function Evaluations:	1634
    CPU Time [s]:	2826.472
    Evaluations/Second [1/s]:	0.578106

    Values[ate_freq_in].InitialValue: 5.61238
    Values[ate_m10_in].InitialValue: 7.80026e-122
    Values[ate_m11_in].InitialValue: 3.88196e-162
    Values[ate_m12_in].InitialValue: 2.89566e-197
    Values[ate_m13_in].InitialValue: 8.57463e-51
    Values[ate_m14_in].InitialValue: 1.91124e-27
    Values[ate_m15_in].InitialValue: 1.10167e-44
    Values[ate_m1_in].InitialValue: 1.46927e-216
    Values[ate_m2_in].InitialValue: 2.42288e-52
    Values[ate_m3_in].InitialValue: 1.11232e-201
    Values[ate_m4_in].InitialValue: 2.90313e-24
    Values[ate_m5_in].InitialValue: 0
    Values[ate_m6_in].InitialValue: 9.64112e-310
    Values[ate_m7_in].InitialValue: 8.08485e-276
    Values[ate_m8_in].InitialValue: 1.30055e-200
    Values[ate_m9_in].InitialValue: 1.85194e-164
    Values[cibi_freq_in].InitialValue: 5.62256
    Values[cibi_m10_in].InitialValue: 1.20357e-27
    Values[cibi_m11_in].InitialValue: 1.11891e-153
    Values[cibi_m12_in].InitialValue: 4.94784e-146
    Values[cibi_m13_in].InitialValue: 7.36341e-139
    Values[cibi_m14_in].InitialValue: 9.24824e-286
    Values[cibi_m15_in].InitialValue: 134.499
    Values[cibi_m1_in].InitialValue: 66.6008
    Values[cibi_m2_in].InitialValue: 4.82482e-35
    Values[cibi_m3_in].InitialValue: 8.00866e-79
    Values[cibi_m4_in].InitialValue: 1.65362e-164
    Values[cibi_m5_in].InitialValue: 4.42116e-266
    Values[cibi_m6_in].InitialValue: 0
    Values[cibi_m7_in].InitialValue: 137.495
    Values[cibi_m8_in].InitialValue: 6.36139e-310
    Values[cibi_m9_in].InitialValue: 8.51119e-310


