{
    "synthesized_therapy": {
        "ate_m12_in": 2.895664230940634e-197,
        "cibi_m7_in": 137.49530904447676,
        "ate_m5_in": 0.0,
        "ate_m4_in": 2.9031321806775473e-24,
        "cibi_m2_in": 4.824821104610587e-35,
        "cibi_m14_in": 9.248241467572022e-286,
        "cibi_m12_in": 4.947842005763226e-146,
        "ate_m14_in": 1.9112350570583277e-27,
        "cibi_m5_in": 4.4211632415775255e-266,
        "ate_m15_in": 1.1016742471476284e-44,
        "ate_m3_in": 1.112321745133274e-201,
        "ate_m7_in": 8.084854369327352e-276,
        "cibi_m11_in": 1.1189070558057083e-153,
        "ate_m9_in": 1.851940812518555e-164,
        "ate_m1_in": 1.469269567173337e-216,
        "cibi_m8_in": 6.36139390021165e-310,
        "cibi_m13_in": 7.363412697069945e-139,
        "cibi_m15_in": 134.49869464750233,
        "ate_m8_in": 1.3005537992361265e-200,
        "ate_freq_in": 5.612383675843289,
        "cibi_m3_in": 8.008657144418282e-79,
        "ate_m13_in": 8.574630156825934e-51,
        "ate_m11_in": 3.881959711476293e-162,
        "cibi_freq_in": 5.622563534521834,
        "cibi_m6_in": 0.0,
        "cibi_m4_in": 1.6536186463447315e-164,
        "cibi_m1_in": 66.60082213461588,
        "ate_m2_in": 2.4228816081320832e-52,
        "ate_m6_in": 9.6411231728086e-310,
        "cibi_m9_in": 8.5111940717127e-310,
        "ate_m10_in": 7.800258291770779e-122,
        "cibi_m10_in": 1.2035652842878785e-27
    },
    "inefficacy": 4.102035135216376,
    "total_drugs": 1.0406378458533732,
    "statistics": {
        "failed_func_evaluations_exception": 1,
        "execution_time": 2826.4719999999998,
        "failed_func_evaluations_nan": 0
    },
    "tumour_diameter": 8.583014387047117,
    "function_evaluations": 1634,
    "objective_value": 3.7958954062800756
}