{
    "synthesized_therapy": {
        "ate_freq_in": 4.60186,
        "ate_m10_in": 0.0856518,
        "ate_m11_in": 8.42666,
        "ate_m12_in": 0.321637,
        "ate_m13_in": 0.120346,
        "ate_m14_in": 0.00817353,
        "ate_m15_in": 1.94097,
        "ate_m1_in": 1.39486,
        "ate_m2_in": 0.0031647,
        "ate_m3_in": 0.389614,
        "ate_m4_in": 0.189322,
        "ate_m5_in": 0.486374,
        "ate_m6_in": 17.7902,
        "ate_m7_in": 0.0,
        "ate_m8_in": 0.656171,
        "ate_m9_in": 0.543286,
        "cibi_freq_in": 5.96018,
        "cibi_m10_in": 3.94249,
        "cibi_m11_in": 0.365487,
        "cibi_m12_in": 0.0784004,
        "cibi_m13_in": 0.646572,
        "cibi_m14_in": 1.79172,
        "cibi_m15_in": 108.298,
        "cibi_m1_in": 3.70536,
        "cibi_m2_in": 10.821,
        "cibi_m3_in": 0.0168958,
        "cibi_m4_in": 3.32847,
        "cibi_m5_in": 3.24153,
        "cibi_m6_in": 1.6551,
        "cibi_m7_in": 152.903,
        "cibi_m8_in": 4.22332,
        "cibi_m9_in": 0.326578
    },
    "tumour_diameter": 28.33957200575617,
    "total_drugs": 0.979033357638889,
    "objective": 22.619489423211963,
    "inefficacy": 25.02398454160897
}
