======= APRICOPT =========

=== Optimization through COPASI solver ===


Solver settings: 

Method: Nelder - Mead
    Log Verbosity: 0
    Iteration Limit: 1200
    Tolerance: 0.1
    Scale: 10



Optimization Log:

Function Evaluation	Objective Value		Optimization Parameters
1			27.6861			(	4	24	24	24	24	24	24	24	24	24	24	24	24	24	24	24	3	160	160	160	160	160	160	160	160	160	160	160	160	160	160	160	)
2			26.6865			(	4.5	24	24	24	24	24	24	24	24	24	24	24	24	24	24	24	3	160	160	160	160	160	160	160	160	160	160	160	160	160	160	160	)
18			9.17831			(	4	24	24	24	24	24	24	24	24	24	24	24	24	24	24	24	3.5	160	160	160	160	160	160	160	160	160	160	160	160	160	160	160	)
281			9.17827			(	4.4	24	24	24	24	24	24	24	24	24	24	24	24	24	24	24	3.5	160	160	160	160	160	160	160	160	160	160	160	160	160	160	160	)
282			9.15164			(	4	22.08	24	24	24	24	24	24	24	24	24	24	24	24	24	24	3.5	160	160	160	160	160	160	160	160	160	160	160	160	160	160	160	)
283			9.15164			(	4	24	22.08	24	24	24	24	24	24	24	24	24	24	24	24	24	3.5	160	160	160	160	160	160	160	160	160	160	160	160	160	160	160	)
284			9.15164			(	4	24	24	22.08	24	24	24	24	24	24	24	24	24	24	24	24	3.5	160	160	160	160	160	160	160	160	160	160	160	160	160	160	160	)
285			9.15164			(	4	24	24	24	22.08	24	24	24	24	24	24	24	24	24	24	24	3.5	160	160	160	160	160	160	160	160	160	160	160	160	160	160	160	)
286			9.15164			(	4	24	24	24	24	22.08	24	24	24	24	24	24	24	24	24	24	3.5	160	160	160	160	160	160	160	160	160	160	160	160	160	160	160	)
288			9.12497			(	4	24	24	24	24	24	24	22.08	24	24	24	24	24	24	24	24	3.5	160	160	160	160	160	160	160	160	160	160	160	160	160	160	160	)
318			9.12494			(	4.32	24	24	24	24	24	24	22.08	24	24	24	24	24	24	24	24	3.5	160	160	160	160	160	160	160	160	160	160	160	160	160	160	160	)
319			9.10364			(	4	22.464	24	24	24	24	24	22.08	24	24	24	24	24	24	24	24	3.5	160	160	160	160	160	160	160	160	160	160	160	160	160	160	160	)
320			9.10364			(	4	24	22.464	24	24	24	24	22.08	24	24	24	24	24	24	24	24	3.5	160	160	160	160	160	160	160	160	160	160	160	160	160	160	160	)
321			9.10364			(	4	24	24	22.464	24	24	24	22.08	24	24	24	24	24	24	24	24	3.5	160	160	160	160	160	160	160	160	160	160	160	160	160	160	160	)
322			9.10364			(	4	24	24	24	22.464	24	24	22.08	24	24	24	24	24	24	24	24	3.5	160	160	160	160	160	160	160	160	160	160	160	160	160	160	160	)
323			9.10364			(	4	24	24	24	24	22.464	24	22.08	24	24	24	24	24	24	24	24	3.5	160	160	160	160	160	160	160	160	160	160	160	160	160	160	160	)
341			9.09096			(	4	24	24	24	24	24	24	22.08	24	24	24	24	24	24	24	24	3.5	160	160	160	160	160	160	149.76	160	160	160	160	160	160	160	160	)
350			8.98316			(	4.03	23.856	23.856	23.856	23.856	23.856	23.856	19.008	23.856	23.856	23.856	23.856	23.856	23.856	23.856	23.856	3.53	159.04	159.04	159.04	159.04	159.04	159.04	159.04	159.04	159.04	159.04	159.04	159.04	159.04	159.04	159.04	)
351			8.7989			(	4.06	23.712	23.712	23.712	23.712	23.712	23.712	14.4	23.712	23.712	23.712	23.712	23.712	23.712	23.712	23.712	3.56	158.08	158.08	158.08	158.08	158.08	158.08	158.08	158.08	158.08	158.08	158.08	158.08	158.08	158.08	158.08	)
356			8.79886			(	4.316	23.712	23.712	23.712	23.712	23.712	23.712	14.4	23.712	23.712	23.712	23.712	23.712	23.712	23.712	23.712	3.56	158.08	158.08	158.08	158.08	158.08	158.08	158.08	158.08	158.08	158.08	158.08	158.08	158.08	158.08	158.08	)
357			8.78183			(	4.06	22.4832	23.712	23.712	23.712	23.712	23.712	14.4	23.712	23.712	23.712	23.712	23.712	23.712	23.712	23.712	3.56	158.08	158.08	158.08	158.08	158.08	158.08	158.08	158.08	158.08	158.08	158.08	158.08	158.08	158.08	158.08	)
359			8.78183			(	4.06	23.712	23.712	22.4832	23.712	23.712	23.712	14.4	23.712	23.712	23.712	23.712	23.712	23.712	23.712	23.712	3.56	158.08	158.08	158.08	158.08	158.08	158.08	158.08	158.08	158.08	158.08	158.08	158.08	158.08	158.08	158.08	)
360			8.78183			(	4.06	23.712	23.712	23.712	22.4832	23.712	23.712	14.4	23.712	23.712	23.712	23.712	23.712	23.712	23.712	23.712	3.56	158.08	158.08	158.08	158.08	158.08	158.08	158.08	158.08	158.08	158.08	158.08	158.08	158.08	158.08	158.08	)
370			8.78183			(	4.06	23.712	23.712	23.712	23.712	23.712	23.712	14.4	23.712	23.712	23.712	23.712	23.712	23.712	22.4832	23.712	3.56	158.08	158.08	158.08	158.08	158.08	158.08	158.08	158.08	158.08	158.08	158.08	158.08	158.08	158.08	158.08	)
373			8.77931			(	4.06	23.712	23.712	23.712	23.712	23.712	23.712	14.4	23.712	23.712	23.712	23.712	23.712	23.712	23.712	23.712	3.56	149.888	158.08	158.08	158.08	158.08	158.08	158.08	158.08	158.08	158.08	158.08	158.08	158.08	158.08	158.08	)
379			8.77177			(	4.06	23.712	23.712	23.712	23.712	23.712	23.712	14.4	23.712	23.712	23.712	23.712	23.712	23.712	23.712	23.712	3.56	158.08	158.08	158.08	158.08	158.08	158.08	149.888	158.08	158.08	158.08	158.08	158.08	158.08	158.08	158.08	)
388			8.68577			(	4.084	23.5968	23.5968	23.5968	23.5968	23.5968	23.5968	11.9424	23.5968	23.5968	23.5968	23.5968	23.5968	23.5968	23.5968	23.5968	3.584	157.312	157.312	157.312	157.312	157.312	157.312	157.312	157.312	157.312	157.312	157.312	157.312	157.312	157.312	157.312	)
389			8.53864			(	4.108	23.4816	23.4816	23.4816	23.4816	23.4816	23.4816	8.256	23.4816	23.4816	23.4816	23.4816	23.4816	23.4816	23.4816	23.4816	3.608	156.544	156.544	156.544	156.544	156.544	156.544	156.544	156.544	156.544	156.544	156.544	156.544	156.544	156.544	156.544	)
394			8.53861			(	4.3128	23.4816	23.4816	23.4816	23.4816	23.4816	23.4816	8.256	23.4816	23.4816	23.4816	23.4816	23.4816	23.4816	23.4816	23.4816	3.608	156.544	156.544	156.544	156.544	156.544	156.544	156.544	156.544	156.544	156.544	156.544	156.544	156.544	156.544	156.544	)
395			8.52499			(	4.108	22.4986	23.4816	23.4816	23.4816	23.4816	23.4816	8.256	23.4816	23.4816	23.4816	23.4816	23.4816	23.4816	23.4816	23.4816	3.608	156.544	156.544	156.544	156.544	156.544	156.544	156.544	156.544	156.544	156.544	156.544	156.544	156.544	156.544	156.544	)
396			8.52499			(	4.108	23.4816	22.4986	23.4816	23.4816	23.4816	23.4816	8.256	23.4816	23.4816	23.4816	23.4816	23.4816	23.4816	23.4816	23.4816	3.608	156.544	156.544	156.544	156.544	156.544	156.544	156.544	156.544	156.544	156.544	156.544	156.544	156.544	156.544	156.544	)
397			8.52499			(	4.108	23.4816	23.4816	22.4986	23.4816	23.4816	23.4816	8.256	23.4816	23.4816	23.4816	23.4816	23.4816	23.4816	23.4816	23.4816	3.608	156.544	156.544	156.544	156.544	156.544	156.544	156.544	156.544	156.544	156.544	156.544	156.544	156.544	156.544	156.544	)
398			8.52499			(	4.108	23.4816	23.4816	23.4816	22.4986	23.4816	23.4816	8.256	23.4816	23.4816	23.4816	23.4816	23.4816	23.4816	23.4816	23.4816	3.608	156.544	156.544	156.544	156.544	156.544	156.544	156.544	156.544	156.544	156.544	156.544	156.544	156.544	156.544	156.544	)
411			8.52323			(	4.108	23.4816	23.4816	23.4816	23.4816	23.4816	23.4816	8.256	23.4816	23.4816	23.4816	23.4816	23.4816	23.4816	23.4816	23.4816	3.608	149.99	156.544	156.544	156.544	156.544	156.544	156.544	156.544	156.544	156.544	156.544	156.544	156.544	156.544	156.544	)
417			8.51699			(	4.108	23.4816	23.4816	23.4816	23.4816	23.4816	23.4816	8.256	23.4816	23.4816	23.4816	23.4816	23.4816	23.4816	23.4816	23.4816	3.608	156.544	156.544	156.544	156.544	156.544	156.544	149.99	156.544	156.544	156.544	156.544	156.544	156.544	156.544	156.544	)
426			8.44834			(	4.1272	23.3894	23.3894	23.3894	23.3894	23.3894	23.3894	6.28992	23.3894	23.3894	23.3894	23.3894	23.3894	23.3894	23.3894	23.3894	3.6272	155.93	155.93	155.93	155.93	155.93	155.93	155.93	155.93	155.93	155.93	155.93	155.93	155.93	155.93	155.93	)
427			8.33084			(	4.1464	23.2973	23.2973	23.2973	23.2973	23.2973	23.2973	3.3408	23.2973	23.2973	23.2973	23.2973	23.2973	23.2973	23.2973	23.2973	3.6464	155.315	155.315	155.315	155.315	155.315	155.315	155.315	155.315	155.315	155.315	155.315	155.315	155.315	155.315	155.315	)
432			8.33081			(	4.31024	23.2973	23.2973	23.2973	23.2973	23.2973	23.2973	3.3408	23.2973	23.2973	23.2973	23.2973	23.2973	23.2973	23.2973	23.2973	3.6464	155.315	155.315	155.315	155.315	155.315	155.315	155.315	155.315	155.315	155.315	155.315	155.315	155.315	155.315	155.315	)
433			8.31992			(	4.1464	22.5108	23.2973	23.2973	23.2973	23.2973	23.2973	3.3408	23.2973	23.2973	23.2973	23.2973	23.2973	23.2973	23.2973	23.2973	3.6464	155.315	155.315	155.315	155.315	155.315	155.315	155.315	155.315	155.315	155.315	155.315	155.315	155.315	155.315	155.315	)
434			8.31992			(	4.1464	23.2973	22.5108	23.2973	23.2973	23.2973	23.2973	3.3408	23.2973	23.2973	23.2973	23.2973	23.2973	23.2973	23.2973	23.2973	3.6464	155.315	155.315	155.315	155.315	155.315	155.315	155.315	155.315	155.315	155.315	155.315	155.315	155.315	155.315	155.315	)
443			8.31992			(	4.1464	23.2973	23.2973	23.2973	23.2973	23.2973	23.2973	3.3408	23.2973	23.2973	23.2973	22.5108	23.2973	23.2973	23.2973	23.2973	3.6464	155.315	155.315	155.315	155.315	155.315	155.315	155.315	155.315	155.315	155.315	155.315	155.315	155.315	155.315	155.315	)
447			8.31992			(	4.1464	23.2973	23.2973	23.2973	23.2973	23.2973	23.2973	3.3408	23.2973	23.2973	23.2973	23.2973	23.2973	23.2973	23.2973	22.5108	3.6464	155.315	155.315	155.315	155.315	155.315	155.315	155.315	155.315	155.315	155.315	155.315	155.315	155.315	155.315	155.315	)
449			8.31867			(	4.1464	23.2973	23.2973	23.2973	23.2973	23.2973	23.2973	3.3408	23.2973	23.2973	23.2973	23.2973	23.2973	23.2973	23.2973	23.2973	3.6464	150.072	155.315	155.315	155.315	155.315	155.315	155.315	155.315	155.315	155.315	155.315	155.315	155.315	155.315	155.315	)
455			8.31355			(	4.1464	23.2973	23.2973	23.2973	23.2973	23.2973	23.2973	3.3408	23.2973	23.2973	23.2973	23.2973	23.2973	23.2973	23.2973	23.2973	3.6464	155.315	155.315	155.315	155.315	155.315	155.315	150.072	155.315	155.315	155.315	155.315	155.315	155.315	155.315	155.315	)
464			8.25875			(	4.16176	23.2236	23.2236	23.2236	23.2236	23.2236	23.2236	1.76794	23.2236	23.2236	23.2236	23.2236	23.2236	23.2236	23.2236	23.2236	3.66176	154.824	154.824	154.824	154.824	154.824	154.824	154.824	154.824	154.824	154.824	154.824	154.824	154.824	154.824	154.824	)
470			8.25872			(	4.29283	23.2236	23.2236	23.2236	23.2236	23.2236	23.2236	1.76794	23.2236	23.2236	23.2236	23.2236	23.2236	23.2236	23.2236	23.2236	3.66176	154.824	154.824	154.824	154.824	154.824	154.824	154.824	154.824	154.824	154.824	154.824	154.824	154.824	154.824	154.824	)
502			8.24661			(	4.17405	23.2825	23.2825	23.2825	23.2825	23.2825	23.2825	0.509645	23.2825	23.2825	23.2825	23.2825	23.2825	23.2825	23.2825	23.2825	3.67405	155.217	155.217	155.217	155.217	155.217	155.217	155.217	155.217	155.217	155.217	155.217	155.217	155.217	155.217	155.217	)
508			8.24658			(	4.27891	23.2825	23.2825	23.2825	23.2825	23.2825	23.2825	0.509645	23.2825	23.2825	23.2825	23.2825	23.2825	23.2825	23.2825	23.2825	3.67405	155.217	155.217	155.217	155.217	155.217	155.217	155.217	155.217	155.217	155.217	155.217	155.217	155.217	155.217	155.217	)
548			8.24658			(	4.36279	23.2825	23.2825	23.2825	23.2825	23.2825	23.2825	0.509645	23.2825	23.2825	23.2825	23.2825	23.2825	23.2825	23.2825	23.2825	3.67405	155.217	155.217	155.217	155.217	155.217	155.217	155.217	155.217	155.217	155.217	155.217	155.217	155.217	155.217	155.217	)
592			8.24658			(	4.4299	23.2825	23.2825	23.2825	23.2825	23.2825	23.2825	0.509645	23.2825	23.2825	23.2825	23.2825	23.2825	23.2825	23.2825	23.2825	3.67405	155.217	155.217	155.217	155.217	155.217	155.217	155.217	155.217	155.217	155.217	155.217	155.217	155.217	155.217	155.217	)
638			8.24658			(	4.48359	23.2825	23.2825	23.2825	23.2825	23.2825	23.2825	0.509645	23.2825	23.2825	23.2825	23.2825	23.2825	23.2825	23.2825	23.2825	3.67405	155.217	155.217	155.217	155.217	155.217	155.217	155.217	155.217	155.217	155.217	155.217	155.217	155.217	155.217	155.217	)
