id,total_drugs,initial_tumour_diameter,final_tumour_diameter,inefficacy,objective
6159.0,100.0,16.90402483355971,64.62784534244796,247.0866219573469,232.3779597616122
79.0,100.0,17.958923690294505,12.717564509500473,9.005909810770723,18.10531882969365
5093.0,100.0,13.698047379572325,5.4993707383197785,2.2078386560838474,11.987054790475463
1972.0,100.0,7.0375751581776225,16.519305057138684,38.77577623504511,44.8981986115406
9611.0,100.0,16.15338563989524,20.604043172198395,26.2809670062807,33.65287030565263
6663.0,100.0,12.707772458072336,11.566633084760015,10.527966357509,19.4751697217581
2970.0,100.0,28.8988712087622,22.726646865667174,17.87268693042016,26.085418237378143
1617.0,100.0,8.382230472934319,9.750722634411899,11.342636330536209,20.208372697482588
3033.0,100.0,21.496692498793745,26.35306861515613,32.306561833830806,39.07590565044772
2476.0,100.0,19.74654593813895,20.87808897330184,22.074473203701444,29.8670258833313
2186.0,100.0,40.273936443436476,31.884953536190658,25.243379510043464,32.71904155903912
10001.0,100.0,34.13380977768563,31.121894949787116,28.375746849646177,35.538172164681555
10002.0,100.0,34.045012913362555,18.05207374292661,9.571956023319778,18.6147604209878
10003.0,100.0,30.77311653368584,25.59352900800656,21.28574550993706,29.157170958943354
10004.0,100.0,32.094462819620965,28.288580373230264,24.93401382133366,32.440612439200294
10005.0,100.0,39.43550623947182,28.038579610930473,19.93538365716731,27.94184529145058
10006.0,100.0,28.48873414091935,24.457545799337634,20.996775201307507,28.897097681176756
10007.0,100.0,21.862127546557183,11.371528704487806,5.914871039042765,15.323383935138489
10008.0,100.0,21.899101576690946,15.015094085339337,10.2950821796069,19.26557396164621
10009.0,100.0,27.948132369793626,13.636959840046673,6.653992875747174,15.988593588172456
10010.0,100.0,29.435506239471827,24.050851802632067,19.65121536304685,27.686093826742162
10011.0,100.0,17.313085235703845,12.63152268870593,9.215882857565457,18.294294571808912
10012.0,100.0,15.926166199918455,15.560152750895725,15.202550983829836,23.68229588544685
10013.0,100.0,10.348328454672897,8.179047231968092,6.46450428354513,15.818053855190618
10014.0,100.0,11.862127546557186,12.651332543189536,13.493044522592463,22.143740070333216
