{
    "total_drugs": 8.502066644781728,
    "tumour_diameter": 1.1908703700955794,
    "statistics": {
        "failed_func_evaluations_nan": 0,
        "failed_func_evaluations_exception": 101,
        "execution_time": 3808.2639999999997
    },
    "synthesized_therapy": {
        "ate_m10_in": 1.5512662012797308e-260,
        "cibi_m11_in": 8.7029076458495e-154,
        "ate_m4_in": 1.1403744535601368e-223,
        "ate_m1_in": 13.394124710698609,
        "cibi_m9_in": 1.9432830034805778e-258,
        "cibi_m1_in": 2.1002028520684485e-114,
        "ate_m7_in": 14.966774095963705,
        "cibi_m2_in": 5.557066779995143e-211,
        "ate_m5_in": 3.203313613931108e-236,
        "cibi_freq_in": 3.0498099563394137,
        "cibi_m7_in": 83.89587183785417,
        "ate_m6_in": 1.2406057117025935e-117,
        "cibi_m6_in": 3.824819913672806e-241,
        "ate_freq_in": 6.0,
        "ate_m12_in": 7.857460750835792e-112,
        "ate_m13_in": 4.6949449345851396e-123,
        "ate_m3_in": 6.7078170833386e-310,
        "ate_m2_in": 8.634092353950267e-13,
        "cibi_m8_in": 3.98626133494364e-310,
        "cibi_m15_in": 2.2889464287054184e-265,
        "cibi_m13_in": 6.1999262271567154e-155,
        "ate_m9_in": 1.9272346405867786e-47,
        "cibi_m5_in": 0.0,
        "ate_m15_in": 8.935083723283536e-45,
        "cibi_m4_in": 90.88437113851217,
        "ate_m11_in": 6.345204176558718e-162,
        "cibi_m3_in": 3.8433491969558165e-247,
        "cibi_m12_in": 5.875523714211005e-272,
        "ate_m8_in": 14.64373471953017,
        "cibi_m10_in": 120.12660513207507,
        "ate_m14_in": 3.4903087829703393e-44,
        "cibi_m14_in": 2.7288180653332602e-43
    },
    "function_evaluations": 1634,
    "inefficacy": 0.048178965458724486,
    "objective_value": 0.8935677333910249
}