{
    "synthesized_therapy": {
        "ate_freq_in": 4.29283,
        "ate_m10_in": 23.2236,
        "ate_m11_in": 23.2236,
        "ate_m12_in": 23.2236,
        "ate_m13_in": 23.2236,
        "ate_m14_in": 23.2236,
        "ate_m15_in": 23.2236,
        "ate_m1_in": 1.76794,
        "ate_m2_in": 23.2236,
        "ate_m3_in": 23.2236,
        "ate_m4_in": 23.2236,
        "ate_m5_in": 23.2236,
        "ate_m6_in": 23.2236,
        "ate_m7_in": 23.2236,
        "ate_m8_in": 23.2236,
        "ate_m9_in": 23.2236,
        "cibi_freq_in": 3.66176,
        "cibi_m10_in": 154.824,
        "cibi_m11_in": 154.824,
        "cibi_m12_in": 154.824,
        "cibi_m13_in": 154.824,
        "cibi_m14_in": 154.824,
        "cibi_m15_in": 154.824,
        "cibi_m1_in": 154.824,
        "cibi_m2_in": 154.824,
        "cibi_m3_in": 154.824,
        "cibi_m4_in": 154.824,
        "cibi_m5_in": 154.824,
        "cibi_m6_in": 154.824,
        "cibi_m7_in": 154.824,
        "cibi_m8_in": 154.824,
        "cibi_m9_in": 154.824
    },
    "tumour_diameter": 12.52690054998234,
    "total_drugs": 78.70946944444445,
    "objective": 19.77698261097404,
    "inefficacy": 13.228928518366217
}
