{
    "synthesized_therapy": {
        "ate_freq_in": 4.48359,
        "ate_m10_in": 23.2825,
        "ate_m11_in": 23.2825,
        "ate_m12_in": 23.2825,
        "ate_m13_in": 23.2825,
        "ate_m14_in": 23.2825,
        "ate_m15_in": 23.2825,
        "ate_m1_in": 0.509645,
        "ate_m2_in": 23.2825,
        "ate_m3_in": 23.2825,
        "ate_m4_in": 23.2825,
        "ate_m5_in": 23.2825,
        "ate_m6_in": 23.2825,
        "ate_m7_in": 23.2825,
        "ate_m8_in": 23.2825,
        "ate_m9_in": 23.2825,
        "cibi_freq_in": 3.67405,
        "cibi_m10_in": 155.217,
        "cibi_m11_in": 155.217,
        "cibi_m12_in": 155.217,
        "cibi_m13_in": 155.217,
        "cibi_m14_in": 155.217,
        "cibi_m15_in": 155.217,
        "cibi_m1_in": 155.217,
        "cibi_m2_in": 155.217,
        "cibi_m3_in": 155.217,
        "cibi_m4_in": 155.217,
        "cibi_m5_in": 155.217,
        "cibi_m6_in": 155.217,
        "cibi_m7_in": 155.217,
        "cibi_m8_in": 155.217,
        "cibi_m9_in": 155.217
    },
    "tumour_diameter": 12.587326776867886,
    "total_drugs": 78.5583996527778,
    "objective": 16.09219494808698,
    "inefficacy": 9.151505536454668
}
