{
    "tumour_diameter": 15.234035555679753,
    "objective_value": 14.19417565164668,
    "function_evaluations": 1634,
    "statistics": {
        "failed_func_evaluations_nan": 0,
        "failed_func_evaluations_exception": 0,
        "execution_time": 3567.8199999999997
    },
    "synthesized_therapy": {
        "ate_m13_in": 23.608689791020545,
        "cibi_m1_in": 144.12343838347255,
        "ate_m14_in": 7.618479687411665e-44,
        "cibi_m12_in": 4.707512993288063e-78,
        "ate_freq_in": 6.0,
        "cibi_m13_in": 7.448017528392621e-155,
        "cibi_m15_in": 1.3204779376851543e-241,
        "cibi_m3_in": 5.1885968203622726e-247,
        "ate_m10_in": 7.497945438013232e-122,
        "cibi_m6_in": 3.262906748416225e-107,
        "cibi_m11_in": 1.165570218220091e-153,
        "cibi_m9_in": 2.4591563617030696e-75,
        "ate_m7_in": 1.9931300012446317e-60,
        "ate_m15_in": 9.99313060144571e-45,
        "ate_m5_in": 11.20710950066728,
        "ate_m2_in": 17.355678331360867,
        "cibi_m4_in": 2.3886119307165085e-50,
        "ate_m8_in": 17.28461899072761,
        "ate_m6_in": 1.2921197794815128e-117,
        "ate_m1_in": 15.654788998778088,
        "cibi_m8_in": 5.233588238249448e-250,
        "ate_m12_in": 7.15877672586358e-266,
        "ate_m11_in": 4.877038394460463e-162,
        "cibi_m14_in": 1.1693079978252493e-18,
        "cibi_m7_in": 7.393790129437313e-195,
        "ate_m3_in": 2.0952665647762938e-294,
        "cibi_m5_in": 0.0,
        "cibi_m10_in": 2.325790641560749e-252,
        "ate_m4_in": 8.758003066149625,
        "cibi_m2_in": 4.76075265829902e-180,
        "cibi_freq_in": 4.98981686609209,
        "ate_m9_in": 2.1054901061210228e-75
    },
    "total_drugs": 10.793900366621457,
    "inefficacy": 14.571984016649482
}