======= APRICOPT =========

=== Optimization through COPASI solver ===


Solver settings: 

Method: Particle Swarm
    Log Verbosity: 0
    Iteration Limit: 100
    Swarm Size: 30
    Std. Deviation: 0.1
    Random Number Generator: 1
    Seed: 104
    Stop after # Stalled Iterations: 0

Population Information: 
Population Size: 0
# Generations / Iterations: 0
Current Generation / Iteration: 0
Population Values: 
   (		)

Population:



Optimization Log:

Function Evaluation	Objective Value		Optimization Parameters
1			19.4748			(	4	24	24	24	24	24	24	24	24	24	24	24	24	24	24	24	3	160	160	160	160	160	160	160	160	160	160	160	160	160	160	160	)
4			13.3622			(	5.48009	12.5293	22.5591	0.145588	7.74936	23.0966	15.6594	1.5572	4.6583	13.6649	18.3135	9.95606	18.0584	6.55034	14.9428	17.7514	5.12898	44.1692	17.0272	37.0107	33.6892	48.008	1.48612	126.728	43.09	155.913	141.11	22.3499	34.2111	142.408	49.1491	152.798	)
27			13.3362			(	5.44744	2.23223	11.1706	6.19901	22.5885	21.0555	22.6265	2.56234	18.3771	4.76463	10.2065	2.47307	13.7284	16.8215	23.0817	12.3875	5.40335	126.671	127.137	159.767	71.2976	47.8659	148.395	129.436	26.0831	111.574	11.2562	34.4261	93.4963	88.3902	1.00661	14.8343	)
30			13.1649			(	5.78188	9.61875	11.1471	19.2714	11.5914	1.09549	13.7291	18.8984	5.7031	7.22825	7.57236	8.35053	23.6433	22.1348	2.43315	6.97684	4.84888	34.1113	144.837	62.4	62.7746	20.913	41.2313	56.5313	55.4371	119.507	11.6565	125.203	105.756	63.2797	110.953	66.7611	)
38			12.8997			(	5.69424	10.914	4.34789	9.84427	18.6102	0	3.6227	6.75269	2.41701	6.51647	16.8092	13.6865	7.18129	10.3817	11.2745	14.7295	4.26436	156.799	98.282	40.094	29.9839	30.7147	0	23.142	93.93	48.012	109.292	84.5385	64.8695	64.5069	68.5105	53.362	)
112			12.7106			(	5.7796	0	17.4529	6.39104	0.662159	8.63512	22.8422	6.66309	2.65746	12.915	11.4592	21.2486	16.6418	15.4786	8.88742	9.29397	5.46757	47.2247	74.214	67.9527	28.2475	8.70291	0	153.234	39.4282	91.2946	65.7593	82.3222	39.1941	43.5739	72.9817	0	)
118			12.3175			(	6	0.772406	6.80658	13.4019	0	3.32661	16.4619	8.31227	2.32108	8.63631	12.2289	7.54149	23.323	16.0305	7.57316	9.233	5.77008	56.0899	76.178	75.6616	110.36	0	8.06419	50.4793	80.8963	138.079	74.8687	0	16.1063	38.2198	85.2823	12.0679	)
160			12.2894			(	6	0	16.5343	21.6642	0	6.29063	16.6963	4.80333	1.27996	5.62014	13.0104	8.11668	10.0707	17.018	6.87342	12.0089	5.83847	62.7905	107.236	54.4562	104.291	0	71.4277	49.9365	61.0255	141.186	34.0298	0	13.5245	0	14.4894	4.51234	)
178			12.1737			(	6	0.685485	7.45754	10.8717	0	5.20525	18.9426	4.18116	2.45551	8.63048	13.636	8.98193	23.9088	15.7451	9.89263	7.58045	5.67892	68.4138	73.9464	52.5743	112.991	0	14.1256	54.8875	83.0025	137.64	69.3722	0	3.32772	23.5983	55.7874	18.7926	)
216			11.9715			(	6	0.947715	6.95755	0.910015	0	3.27823	22.779	9.18095	4.61045	7.2211	14.3016	9.93598	21.3151	16.6876	13.2535	7.52629	5.75427	102.961	53.7151	55.2281	108.149	0	28.3134	25.1005	76.7661	127.899	84.753	0	3.17572	22.1235	47.0864	23.9018	)
247			11.8413			(	5.46353	3.34909	5.5246	1.48673	0	0	24	9.27483	1.40368	3.7125	23.2014	10.0948	21.8703	17.4086	11.2396	12.4241	5.76367	55.7475	39.6627	30.3574	95.0828	4.9557	37.0945	3.34697	73.8944	120.618	123.835	0	2.05487	30.7508	39.3137	1.20071	)
327			11.744			(	5.30975	4.1525	7.84325	3.35367	0	0.977474	20.3995	7.20846	3.00074	2.50745	20.6988	9.78513	21.5541	17.7492	10.1223	11.7588	5.66931	59.2452	43.1621	28.533	96.9203	6.61566	64.7065	3.41438	54.6994	116.531	104.362	0	3.2299	24.5374	40.7384	1.77171	)
433			11.7208			(	5.49217	3.73848	8.51104	2.14756	0.292828	0	23.9056	10.3383	3.63425	4.05602	10.864	9.87824	18.5828	14.6554	11.4396	13.8035	5.79963	43.531	72.8086	22.8078	104.498	1.96621	24.2637	4.87647	21.5828	138.438	142.307	8.55875	9.91422	22.7893	47.6817	0.308666	)
446			11.6541			(	5.58282	4.17711	10.999	4.30309	2.39519	0	16.6852	14.9694	2.65451	5.32749	16.9582	7.66633	18.8229	19.4644	8.74757	9.88745	5.83006	69.9488	43.7194	18.5255	57.5403	3.34944	65.3264	11.4018	6.56289	117.358	92.181	0	3.41245	25.0108	0	0	)
503			11.6531			(	5.68852	3.12987	8.77554	4.35389	0	0	24	8.47326	2.26905	5.16732	22.3443	10.7223	19.2657	18.7951	8.83361	9.9335	5.86618	19.6055	30.8016	27.2939	102.571	10.6419	43.3711	10.7143	50.2121	105.387	149.278	0	0.738584	42.4009	9.68749	8.54733	)
526			11.5405			(	5.56012	3.8224	10.822	2.75606	3.48262	0.278213	15.66	10.1859	0.46931	4.72903	18.0968	7.46299	15.3853	17.2821	9.98275	10.54	5.80497	47.9988	25.6395	4.62458	104.367	1.90827	33.2105	14.6677	3.08943	118.793	73.3822	0	1.65689	12.7351	14.8613	2.46524	)
533			11.5368			(	5.81664	3.57555	4.46531	1.72222	3.73106	0.244278	23.4082	9.06148	0.50694	6.39149	18.2515	10.996	17.7779	16.7694	10.1291	11.2957	5.87758	51.226	34.7127	17.3882	102.165	3.76451	42.6348	19.6281	15.7779	79.2926	113.101	0	0.731343	23.2353	9.47975	6.38327	)
547			11.5237			(	5.33657	4.11639	7.43488	2.07367	0.460154	0.83313	22.5536	6.0281	1.97821	8.33637	5.85545	8.53564	22.078	13.2656	8.76371	9.61285	5.86522	50.5336	32.6442	0	121.182	3.24475	29.3194	14.6852	42.7006	125.412	108.819	0.861475	1.23316	12.9011	28.6696	10.7502	)
573			11.5231			(	5.63598	4.12689	5.25745	2.88036	2.74794	0.343268	21.3534	2.70072	3.58129	8.31298	18.1977	5.78403	20.5993	10.1865	11.1213	12.7831	5.75464	72.0943	15.3939	18.8083	56.768	1.95668	14.7833	8.90587	0	82.6177	90.1899	20.3491	7.84807	18.9171	31.5401	21.1422	)
586			11.4155			(	5.50598	4.07221	11.0046	3.67112	5.09821	0.422846	20.6741	2.28875	2.24153	6.44883	17.3428	7.05754	17.8065	11.0988	11.0156	13.0897	5.77655	74.0372	18.5007	3.01202	77.3506	1.86119	20.663	11.7558	3.65626	64.6801	78.5643	10.5499	7.54487	19.6916	27.2409	4.77818	)
593			11.3876			(	5.8835	4.19679	4.79128	1.86652	6.36649	0.499682	21.533	2.49689	3.076	6.81114	15.8091	8.34524	16.785	13.7886	10.844	13.0174	5.77948	82.4724	23.6078	4.71654	94.5285	4.64518	26.5982	21.1972	3.38837	64.0389	63.6617	8.88711	7.18947	7.64928	15.3468	3.97864	)
631			11.3673			(	5.55929	3.91472	11.7677	4.15266	6.5511	1.12834	20.3901	3.90425	3.91784	5.90487	19.2603	6.7985	15.8165	10.4991	11.9104	13.8957	5.77319	103.619	15.3281	3.11489	54.723	2.81283	18.2589	2.78434	3.06271	27.171	72.9081	6.6454	6.78818	19.591	24.99	8.51714	)
684			11.3562			(	5.79974	3.94911	12.1241	0.0729787	9.74843	0.942955	17.7615	1.85447	2.76068	8.35526	15.4161	6.67591	16.1824	14.1007	14.8582	13.0036	5.84714	160	13.2886	13.8969	125.263	0.121121	27.445	9.64852	16.6808	23.6138	57.0873	0.816395	9.01112	24.6778	19.9989	8.58306	)
691			11.3368			(	5.79156	3.94254	11.4733	3.85285	9.31188	1.10116	16.1261	2.35099	3.98454	7.08702	15.3582	6.66358	15.9025	14.8724	13.6368	14.7023	5.7348	115.03	11.9098	4.30325	62.905	1.3368	15.9719	6.93879	6.25544	13.0827	57.0038	0.156249	11.4339	25.2808	22.5457	10.6979	)
728			11.3151			(	5.96983	3.58396	6.29493	1.69542	6.4415	0.598953	21.3934	0.446661	0.808998	4.22824	15.7424	10.9338	17.985	17.3022	12.2787	10.6629	5.87888	63.2374	24.32	23.3993	113.292	0	60.5466	12.8519	4.27703	13.7586	104.42	0.638709	1.07222	16.9432	6.63013	10.9282	)
731			11.3045			(	5.9249	2.79461	8.56603	1.96671	1.82745	0.526115	21.7452	0.82753	4.5927	5.50293	3.17779	11.2157	16.7336	16.2835	11.7743	9.92669	5.8745	37.7866	22.8173	17.7228	94.7146	2.97114	19.297	31.5812	0	13.7135	100.98	0.660523	2.84249	7.57547	0	10.1228	)
749			11.2687			(	5.81531	2.39353	7.76507	1.02547	4.23126	0.64953	21.3721	4.44775	3.82237	5.24577	3.55372	10.7681	12.29	18.7758	11.7939	11.6004	5.79902	74.5387	18.2397	0.30882	35.2868	3.86236	18.6527	27.81	0	0	93.1903	3.86895	6.68018	9.70675	8.41654	12.9966	)
